{"failedCount":0,"prefixedPath":"src\/test\/java\/tests\/Get.feature","packageQualifiedName":"src.test.java.tests.Get","loopIndex":-1,"relativePath":"src\/test\/java\/tests\/Get.feature","scenarioResults":[{"sectionIndex":0,"stepResults":[{"result":{"nanos":94559200,"millis":94.5592,"status":"passed"},"step":{"background":true,"line":4,"prefix":"*","index":0,"text":"url 'https:\/\/reqres.in\/api'"}},{"result":{"nanos":777500,"millis":0.7775,"status":"passed"},"step":{"background":true,"line":5,"prefix":"*","index":1,"text":"header Accept = 'application\/json'"}},{"result":{"nanos":395900,"millis":0.3959,"status":"passed"},"step":{"line":9,"prefix":"Given","index":0,"text":"url 'https:\/\/reqres.in\/api\/users?page=2'"}},{"result":{"nanos":873927300,"millis":873.9273,"status":"passed"},"step":{"line":10,"prefix":"When","index":1,"text":"method GET"},"stepLog":"17:01:12.470 request:\n1 > GET https:\/\/reqres.in\/api\/users?page=2\n1 > Accept: application\/json\n1 > Host: reqres.in\n1 > Connection: Keep-Alive\n1 > User-Agent: Apache-HttpClient\/4.5.13 (Java\/17.0.4.1)\n1 > Accept-Encoding: gzip,deflate\n\n\n17:01:12.849 response time in milliseconds: 376\n1 < 200\n1 < Date: Tue, 18 Oct 2022 20:01:11 GMT\n1 < Content-Type: application\/json; charset=utf-8\n1 < Transfer-Encoding: chunked\n1 < Connection: keep-alive\n1 < X-Powered-By: Express\n1 < Access-Control-Allow-Origin: *\n1 < Etag: W\/\"406-ut0vzoCuidvyMf8arZpMpJ6ZRDw\"\n1 < Via: 1.1 vegur\n1 < Cache-Control: max-age=14400\n1 < CF-Cache-Status: HIT\n1 < Age: 1730\n1 < Report-To: {\"endpoints\":[{\"url\":\"https:\\\/\\\/a.nel.cloudflare.com\\\/report\\\/v3?s=ucCafzKGD835xj59fwZEmqvoS1b7Ti9cJOQq2r5VW4j0Q%2FbpY1HJ4ON5kFyJod%2BV722Ru6MYEb%2B8b5huCNwyqmSgO3C8auW593vK7iQXqigBAmUBUgW0q2FOIQ%3D%3D\"}],\"group\":\"cf-nel\",\"max_age\":604800}\n1 < NEL: {\"success_fraction\":0,\"report_to\":\"cf-nel\",\"max_age\":604800}\n1 < Vary: Accept-Encoding\n1 < Server: cloudflare\n1 < CF-RAY: 75c3dd4bdbca6037-GRU\n{\"page\":2,\"per_page\":6,\"total\":12,\"total_pages\":2,\"data\":[{\"id\":7,\"email\":\"michael.lawson@reqres.in\",\"first_name\":\"Michael\",\"last_name\":\"Lawson\",\"avatar\":\"https:\/\/reqres.in\/img\/faces\/7-image.jpg\"},{\"id\":8,\"email\":\"lindsay.ferguson@reqres.in\",\"first_name\":\"Lindsay\",\"last_name\":\"Ferguson\",\"avatar\":\"https:\/\/reqres.in\/img\/faces\/8-image.jpg\"},{\"id\":9,\"email\":\"tobias.funke@reqres.in\",\"first_name\":\"Tobias\",\"last_name\":\"Funke\",\"avatar\":\"https:\/\/reqres.in\/img\/faces\/9-image.jpg\"},{\"id\":10,\"email\":\"byron.fields@reqres.in\",\"first_name\":\"Byron\",\"last_name\":\"Fields\",\"avatar\":\"https:\/\/reqres.in\/img\/faces\/10-image.jpg\"},{\"id\":11,\"email\":\"george.edwards@reqres.in\",\"first_name\":\"George\",\"last_name\":\"Edwards\",\"avatar\":\"https:\/\/reqres.in\/img\/faces\/11-image.jpg\"},{\"id\":12,\"email\":\"rachel.howell@reqres.in\",\"first_name\":\"Rachel\",\"last_name\":\"Howell\",\"avatar\":\"https:\/\/reqres.in\/img\/faces\/12-image.jpg\"}],\"support\":{\"url\":\"https:\/\/reqres.in\/#support-heading\",\"text\":\"To keep ReqRes free, contributions towards server costs are appreciated!\"}}\n\n"},{"result":{"nanos":35600,"millis":0.0356,"status":"passed"},"step":{"line":11,"prefix":"Then","index":2,"text":"status 200"}},{"result":{"nanos":130053900,"millis":130.0539,"status":"passed"},"step":{"line":12,"prefix":"And","index":3,"text":"print response"},"stepLog":"17:01:13.041 [print] {\n  \"page\": 2,\n  \"per_page\": 6,\n  \"total\": 12,\n  \"total_pages\": 2,\n  \"data\": [\n    {\n      \"id\": 7,\n      \"email\": \"michael.lawson@reqres.in\",\n      \"first_name\": \"Michael\",\n      \"last_name\": \"Lawson\",\n      \"avatar\": \"https:\/\/reqres.in\/img\/faces\/7-image.jpg\"\n    },\n    {\n      \"id\": 8,\n      \"email\": \"lindsay.ferguson@reqres.in\",\n      \"first_name\": \"Lindsay\",\n      \"last_name\": \"Ferguson\",\n      \"avatar\": \"https:\/\/reqres.in\/img\/faces\/8-image.jpg\"\n    },\n    {\n      \"id\": 9,\n      \"email\": \"tobias.funke@reqres.in\",\n      \"first_name\": \"Tobias\",\n      \"last_name\": \"Funke\",\n      \"avatar\": \"https:\/\/reqres.in\/img\/faces\/9-image.jpg\"\n    },\n    {\n      \"id\": 10,\n      \"email\": \"byron.fields@reqres.in\",\n      \"first_name\": \"Byron\",\n      \"last_name\": \"Fields\",\n      \"avatar\": \"https:\/\/reqres.in\/img\/faces\/10-image.jpg\"\n    },\n    {\n      \"id\": 11,\n      \"email\": \"george.edwards@reqres.in\",\n      \"first_name\": \"George\",\n      \"last_name\": \"Edwards\",\n      \"avatar\": \"https:\/\/reqres.in\/img\/faces\/11-image.jpg\"\n    },\n    {\n      \"id\": 12,\n      \"email\": \"rachel.howell@reqres.in\",\n      \"first_name\": \"Rachel\",\n      \"last_name\": \"Howell\",\n      \"avatar\": \"https:\/\/reqres.in\/img\/faces\/12-image.jpg\"\n    }\n  ],\n  \"support\": {\n    \"url\": \"https:\/\/reqres.in\/#support-heading\",\n    \"text\": \"To keep ReqRes free, contributions towards server costs are appreciated!\"\n  }\n}\n \n"},{"result":{"nanos":4307700,"millis":4.3077,"status":"passed"},"step":{"line":13,"prefix":"And","index":4,"text":"print responseStatus"},"stepLog":"17:01:13.048 [print] 200 \n"},{"result":{"nanos":1195200,"millis":1.1952,"status":"passed"},"step":{"line":14,"prefix":"And","index":5,"text":"print responseTime"},"stepLog":"17:01:13.049 [print] 376 \n"},{"result":{"nanos":2793600,"millis":2.7936,"status":"passed"},"step":{"line":15,"prefix":"And","index":6,"text":"print responseHeaders"},"stepLog":"17:01:13.052 [print] {\n  \"Date\": [\n    \"Tue, 18 Oct 2022 20:01:11 GMT\"\n  ],\n  \"Content-Type\": [\n    \"application\/json; charset=utf-8\"\n  ],\n  \"Transfer-Encoding\": [\n    \"chunked\"\n  ],\n  \"Connection\": [\n    \"keep-alive\"\n  ],\n  \"X-Powered-By\": [\n    \"Express\"\n  ],\n  \"Access-Control-Allow-Origin\": [\n    \"*\"\n  ],\n  \"Etag\": [\n    \"W\/\\\"406-ut0vzoCuidvyMf8arZpMpJ6ZRDw\\\"\"\n  ],\n  \"Via\": [\n    \"1.1 vegur\"\n  ],\n  \"Cache-Control\": [\n    \"max-age=14400\"\n  ],\n  \"CF-Cache-Status\": [\n    \"HIT\"\n  ],\n  \"Age\": [\n    \"1730\"\n  ],\n  \"Report-To\": [\n    \"{\\\"endpoints\\\":[{\\\"url\\\":\\\"https:\\\\\/\\\\\/a.nel.cloudflare.com\\\\\/report\\\\\/v3?s=ucCafzKGD835xj59fwZEmqvoS1b7Ti9cJOQq2r5VW4j0Q%2FbpY1HJ4ON5kFyJod%2BV722Ru6MYEb%2B8b5huCNwyqmSgO3C8auW593vK7iQXqigBAmUBUgW0q2FOIQ%3D%3D\\\"}],\\\"group\\\":\\\"cf-nel\\\",\\\"max_age\\\":604800}\"\n  ],\n  \"NEL\": [\n    \"{\\\"success_fraction\\\":0,\\\"report_to\\\":\\\"cf-nel\\\",\\\"max_age\\\":604800}\"\n  ],\n  \"Vary\": [\n    \"Accept-Encoding\"\n  ],\n  \"Server\": [\n    \"cloudflare\"\n  ],\n  \"CF-RAY\": [\n    \"75c3dd4bdbca6037-GRU\"\n  ]\n}\n \n"},{"result":{"nanos":2746500,"millis":2.7465,"status":"passed"},"step":{"line":16,"prefix":"And","index":7,"text":"print responseCookies"},"stepLog":"17:01:13.055 [print] null \n"}],"executorName":"main","line":8,"name":"Get Demo 1","description":"","durationMillis":1110.7924,"startTime":1666123271925,"failed":false,"refId":"[1:8]","endTime":1666123273055,"exampleIndex":-1},{"sectionIndex":1,"stepResults":[{"result":{"nanos":951300,"millis":0.9513,"status":"passed"},"step":{"background":true,"line":4,"prefix":"*","index":0,"text":"url 'https:\/\/reqres.in\/api'"}},{"result":{"nanos":632400,"millis":0.6324,"status":"passed"},"step":{"background":true,"line":5,"prefix":"*","index":1,"text":"header Accept = 'application\/json'"}},{"result":{"nanos":358700,"millis":0.3587,"status":"passed"},"step":{"line":20,"prefix":"Given","index":0,"text":"path '\/users?page=2'"}},{"result":{"nanos":99715600,"millis":99.7156,"status":"passed"},"step":{"line":21,"prefix":"When","index":1,"text":"method GET"},"stepLog":"17:01:13.070 request:\n1 > GET https:\/\/reqres.in\/api\/users%3Fpage=2\n1 > Accept: application\/json\n1 > Host: reqres.in\n1 > Connection: Keep-Alive\n1 > User-Agent: Apache-HttpClient\/4.5.13 (Java\/17.0.4.1)\n1 > Accept-Encoding: gzip,deflate\n\n\n17:01:13.166 response time in milliseconds: 96\n1 < 200\n1 < Date: Tue, 18 Oct 2022 20:01:11 GMT\n1 < Content-Type: application\/json; charset=utf-8\n1 < Transfer-Encoding: chunked\n1 < Connection: keep-alive\n1 < X-Powered-By: Express\n1 < Access-Control-Allow-Origin: *\n1 < Etag: W\/\"2c1-N6Rqerxquq2kgQhL51EiSg4x0R8\"\n1 < Via: 1.1 vegur\n1 < Cache-Control: max-age=14400\n1 < CF-Cache-Status: HIT\n1 < Age: 556\n1 < Report-To: {\"endpoints\":[{\"url\":\"https:\\\/\\\/a.nel.cloudflare.com\\\/report\\\/v3?s=GwOpOp80f%2Bh7yqLKvyUfVkxVa5MavbYrOKZkh9wpLqB1xRzKY1FoVbAn%2BtK5MtjOp1YVJdzju61h1Fx7RAvvVTXSOxlpfK4F8vLf0xtPBKKMFZoMHmmxsvx51w%3D%3D\"}],\"group\":\"cf-nel\",\"max_age\":604800}\n1 < NEL: {\"success_fraction\":0,\"report_to\":\"cf-nel\",\"max_age\":604800}\n1 < Vary: Accept-Encoding\n1 < Server: cloudflare\n1 < CF-RAY: 75c3dd4dfe736048-GRU\n{\"page\":1,\"per_page\":6,\"total\":12,\"total_pages\":2,\"data\":[{\"id\":1,\"name\":\"cerulean\",\"year\":2000,\"color\":\"#98B2D1\",\"pantone_value\":\"15-4020\"},{\"id\":2,\"name\":\"fuchsia rose\",\"year\":2001,\"color\":\"#C74375\",\"pantone_value\":\"17-2031\"},{\"id\":3,\"name\":\"true red\",\"year\":2002,\"color\":\"#BF1932\",\"pantone_value\":\"19-1664\"},{\"id\":4,\"name\":\"aqua sky\",\"year\":2003,\"color\":\"#7BC4C4\",\"pantone_value\":\"14-4811\"},{\"id\":5,\"name\":\"tigerlily\",\"year\":2004,\"color\":\"#E2583E\",\"pantone_value\":\"17-1456\"},{\"id\":6,\"name\":\"blue turquoise\",\"year\":2005,\"color\":\"#53B0AE\",\"pantone_value\":\"15-5217\"}],\"support\":{\"url\":\"https:\/\/reqres.in\/#support-heading\",\"text\":\"To keep ReqRes free, contributions towards server costs are appreciated!\"}}\n\n"},{"result":{"nanos":20900,"millis":0.0209,"status":"passed"},"step":{"line":22,"prefix":"Then","index":2,"text":"status 200"}},{"result":{"nanos":1136900,"millis":1.1369,"status":"passed"},"step":{"line":23,"prefix":"And","index":3,"text":"print response"},"stepLog":"17:01:13.169 [print] {\n  \"page\": 1,\n  \"per_page\": 6,\n  \"total\": 12,\n  \"total_pages\": 2,\n  \"data\": [\n    {\n      \"id\": 1,\n      \"name\": \"cerulean\",\n      \"year\": 2000,\n      \"color\": \"#98B2D1\",\n      \"pantone_value\": \"15-4020\"\n    },\n    {\n      \"id\": 2,\n      \"name\": \"fuchsia rose\",\n      \"year\": 2001,\n      \"color\": \"#C74375\",\n      \"pantone_value\": \"17-2031\"\n    },\n    {\n      \"id\": 3,\n      \"name\": \"true red\",\n      \"year\": 2002,\n      \"color\": \"#BF1932\",\n      \"pantone_value\": \"19-1664\"\n    },\n    {\n      \"id\": 4,\n      \"name\": \"aqua sky\",\n      \"year\": 2003,\n      \"color\": \"#7BC4C4\",\n      \"pantone_value\": \"14-4811\"\n    },\n    {\n      \"id\": 5,\n      \"name\": \"tigerlily\",\n      \"year\": 2004,\n      \"color\": \"#E2583E\",\n      \"pantone_value\": \"17-1456\"\n    },\n    {\n      \"id\": 6,\n      \"name\": \"blue turquoise\",\n      \"year\": 2005,\n      \"color\": \"#53B0AE\",\n      \"pantone_value\": \"15-5217\"\n    }\n  ],\n  \"support\": {\n    \"url\": \"https:\/\/reqres.in\/#support-heading\",\n    \"text\": \"To keep ReqRes free, contributions towards server costs are appreciated!\"\n  }\n}\n \n"}],"executorName":"main","line":19,"name":"Get Demo 2","description":"","durationMillis":102.8158,"startTime":1666123273066,"failed":false,"refId":"[2:19]","endTime":1666123273169,"exampleIndex":-1},{"sectionIndex":2,"stepResults":[{"result":{"nanos":352500,"millis":0.3525,"status":"passed"},"step":{"background":true,"line":4,"prefix":"*","index":0,"text":"url 'https:\/\/reqres.in\/api'"}},{"result":{"nanos":304700,"millis":0.3047,"status":"passed"},"step":{"background":true,"line":5,"prefix":"*","index":1,"text":"header Accept = 'application\/json'"}},{"result":{"nanos":110700,"millis":0.1107,"status":"passed"},"step":{"line":27,"prefix":"Given","index":0,"text":"path '\/users?page=2'"}},{"result":{"nanos":502608900,"millis":502.6089,"status":"passed"},"step":{"line":28,"prefix":"When","index":1,"text":"method GET"},"stepLog":"17:01:13.177 request:\n1 > GET https:\/\/reqres.in\/api\/users%3Fpage=2\n1 > Accept: application\/json\n1 > Host: reqres.in\n1 > Connection: Keep-Alive\n1 > User-Agent: Apache-HttpClient\/4.5.13 (Java\/17.0.4.1)\n1 > Accept-Encoding: gzip,deflate\n\n\n17:01:13.678 response time in milliseconds: 500\n1 < 200\n1 < Date: Tue, 18 Oct 2022 20:01:11 GMT\n1 < Content-Type: application\/json; charset=utf-8\n1 < Transfer-Encoding: chunked\n1 < Connection: keep-alive\n1 < X-Powered-By: Express\n1 < Access-Control-Allow-Origin: *\n1 < Etag: W\/\"2c1-N6Rqerxquq2kgQhL51EiSg4x0R8\"\n1 < Via: 1.1 vegur\n1 < Cache-Control: max-age=14400\n1 < CF-Cache-Status: MISS\n1 < Report-To: {\"endpoints\":[{\"url\":\"https:\\\/\\\/a.nel.cloudflare.com\\\/report\\\/v3?s=lRXutvsPmEkfdiI%2BZkF%2F58vdbrnjBy1QvEOLDAdsbnuflYfDmFyf59dCFV6yzxviNHBbjjdLdR7PofNFywQ4MPqGeUIaYq4691uVVQU5A%2B0cjobuooJhhs324g%3D%3D\"}],\"group\":\"cf-nel\",\"max_age\":604800}\n1 < NEL: {\"success_fraction\":0,\"report_to\":\"cf-nel\",\"max_age\":604800}\n1 < Vary: Accept-Encoding\n1 < Server: cloudflare\n1 < CF-RAY: 75c3dd4e8e00019f-GRU\n{\"page\":1,\"per_page\":6,\"total\":12,\"total_pages\":2,\"data\":[{\"id\":1,\"name\":\"cerulean\",\"year\":2000,\"color\":\"#98B2D1\",\"pantone_value\":\"15-4020\"},{\"id\":2,\"name\":\"fuchsia rose\",\"year\":2001,\"color\":\"#C74375\",\"pantone_value\":\"17-2031\"},{\"id\":3,\"name\":\"true red\",\"year\":2002,\"color\":\"#BF1932\",\"pantone_value\":\"19-1664\"},{\"id\":4,\"name\":\"aqua sky\",\"year\":2003,\"color\":\"#7BC4C4\",\"pantone_value\":\"14-4811\"},{\"id\":5,\"name\":\"tigerlily\",\"year\":2004,\"color\":\"#E2583E\",\"pantone_value\":\"17-1456\"},{\"id\":6,\"name\":\"blue turquoise\",\"year\":2005,\"color\":\"#53B0AE\",\"pantone_value\":\"15-5217\"}],\"support\":{\"url\":\"https:\/\/reqres.in\/#support-heading\",\"text\":\"To keep ReqRes free, contributions towards server costs are appreciated!\"}}\n\n"},{"result":{"nanos":9700,"millis":0.0097,"status":"passed"},"step":{"line":29,"prefix":"Then","index":2,"text":"status 200"}},{"result":{"nanos":744400,"millis":0.7444,"status":"passed"},"step":{"line":30,"prefix":"And","index":3,"text":"print response"},"stepLog":"17:01:13.679 [print] {\n  \"page\": 1,\n  \"per_page\": 6,\n  \"total\": 12,\n  \"total_pages\": 2,\n  \"data\": [\n    {\n      \"id\": 1,\n      \"name\": \"cerulean\",\n      \"year\": 2000,\n      \"color\": \"#98B2D1\",\n      \"pantone_value\": \"15-4020\"\n    },\n    {\n      \"id\": 2,\n      \"name\": \"fuchsia rose\",\n      \"year\": 2001,\n      \"color\": \"#C74375\",\n      \"pantone_value\": \"17-2031\"\n    },\n    {\n      \"id\": 3,\n      \"name\": \"true red\",\n      \"year\": 2002,\n      \"color\": \"#BF1932\",\n      \"pantone_value\": \"19-1664\"\n    },\n    {\n      \"id\": 4,\n      \"name\": \"aqua sky\",\n      \"year\": 2003,\n      \"color\": \"#7BC4C4\",\n      \"pantone_value\": \"14-4811\"\n    },\n    {\n      \"id\": 5,\n      \"name\": \"tigerlily\",\n      \"year\": 2004,\n      \"color\": \"#E2583E\",\n      \"pantone_value\": \"17-1456\"\n    },\n    {\n      \"id\": 6,\n      \"name\": \"blue turquoise\",\n      \"year\": 2005,\n      \"color\": \"#53B0AE\",\n      \"pantone_value\": \"15-5217\"\n    }\n  ],\n  \"support\": {\n    \"url\": \"https:\/\/reqres.in\/#support-heading\",\n    \"text\": \"To keep ReqRes free, contributions towards server costs are appreciated!\"\n  }\n}\n \n"}],"executorName":"main","line":26,"name":"Get Demo 2","description":"","durationMillis":504.1309,"startTime":1666123273174,"failed":false,"refId":"[3:26]","endTime":1666123273680,"exampleIndex":-1}],"callDepth":0,"name":"Get API Demo","description":"","resultDate":"2022-10-18 05:01:13 PM","durationMillis":1717.7391,"passedCount":3}